{

    "healing_badges": {

        "healingBadge1": {
            "id": "healingBadge1",
            "title": "Healing Badge 1",
            "description": "Badge Description",
            "picture_locked": "asset picture_locked here",
            "picture_unlocked": "asset picture_unlocked here",
            "unlocked": false,
            "type": "healing",
            "min_points": 2,
            "days_in_ms": 172800000
        },

        "healingBadge2": {
            "id": "healingBadge2",
            "title": "Healing Badge 2",
            "description": "Badge Description",
            "picture_locked": "asset picture_locked here",
            "picture_unlocked": "asset picture_unlocked here",
            "unlocked": false,
            "type": "healing",
            "min_points": 3,
            "days_in_ms": 259200000
        },

        "healingBadge3": {
            "id": "healingBadge3",
            "title": "Healing Badge 3",
            "description": "Badge Description",
            "picture_locked": "asset picture_locked here",
            "picture_unlocked": "asset picture_unlocked here",
            "unlocked": false,
            "type": "healing",
            "min_points": 2,
            "days_in_ms": 172800000
        },

        "healingBadge4": {
            "id": "healingBadge4",
            "title": "Healing Badge 4",
            "description": "Badge Description",
            "picture_locked": "asset picture_locked here",
            "picture_unlocked": "asset picture_unlocked here",
            "unlocked": false,
            "type": "healing",
            "min_points": 1,
            "days_in_ms": 86400000
        }
    },
    
    "physical_badges": {

        "physicalBadge1": {
            "id": "physicalBadge1",
            "title": "Physical Badge 1",
            "description": "Badge Description",
            "picture_locked": "asset picture_locked here",
            "picture_unlocked": "asset picture_unlocked here",
            "unlocked": false,
            "type": "physical",
            "min_points": 2,
            "days_in_ms": 172800000
        },

        "physicalBadge2": {
            "id": "physicalBadge2",
            "title": "Physical Badge 2",
            "description": "Badge Description",
            "picture_locked": "asset picture_locked here",
            "picture_unlocked": "asset picture_unlocked here",
            "unlocked": false,
            "type": "physical",
            "min_points": 4,
            "days_in_ms": 345600000
        },

        "physicalBadge3": {
            "id": "physicalBadge3",
            "title": "Physical Badge 3",
            "description": "Badge Description",
            "picture_locked": "asset picture_locked here",
            "picture_unlocked": "asset picture_unlocked here",
            "unlocked": false,
            "type": "physical"
           
        }
    },

    "social_badges": {

        "socialBadge1": {
            "id": "socialBadge1",
            "title": "Social Badge 1",
            "description": "Badge Description",
            "picture_locked": "asset picture_locked here",
            "picture_unlocked": "asset picture_unlocked here",
            "unlocked": false,
            "type": "social",
            "min_points": 2,
            "days_in_ms": 172800000
        },

        "socialBadge2": {
            "id": "socialBadge2",
            "title": "Social Badge 2",
            "description": "Badge Description",
            "picture_locked": "asset picture_locked here",
            "picture_unlocked": "asset picture_unlocked here",
            "unlocked": false,
            "type": "social",
            "min_points": 4,
            "days_in_ms": 345600000
        },

        "socialBadge3": {
            "id": "socialBadge3",
            "title": "Social Badge 3",
            "description": "Badge Description",
            "picture_locked": "asset picture_locked here",
            "picture_unlocked": "asset picture_unlocked here",
            "unlocked": false,
            "type": "social"
        }
    }


}