{

    "socialDay1": {

        "socialExercise1_1": {
            "key": "0",
            "id": "social1_1",
            "title": "Ein kleines Telefonat",
            "description": "Zeit mit wohltuenden Menschen ist besser als jede Schokolade. Sie hören dir zu, geben dir Ratschläge, wenn du danach fragst und du schöpfst durch inspirierende Gespräche neue Energien. Auch können sie dir Trost und Unterstützung geben, wenn du dies brauchen solltest. \n\nZeit mit deinen liebsten Personen zu verbringen kann sehr erholsam und wichtig sein. Wenn einer der beiden Seiten oder sogar beide jedoch derzeit nicht viel Zeit besitzen, muss es auch nicht immer ein persönliches Treffen sein. \n\nEs kann auch sehr viel helfen, einfach für einige Minuten mit den Personen aus deinem Umfeld zu telefonieren und jemanden bei dir zu haben.",
            "fullImage": "../assets/manul3.jpg",
            "done": false
            
        },
    
        "socialExercise1_2": {
            "key": "1",
            "id": "social1_2",
            "title": "social Exercise 2 Day 1 Title",
            "description": "social Exercise 2 Day 1 Description",
            "fullImage": "../assets/manul3.jpg",
            "done": false
            
        }
    },

    "socialDay2": {

        "socialExercise2_1": {
            "key": "2",
            "id": "social2_1",
            "title": "Dankbarkeit ausdrücken",
            "description": " Es ist nicht immer so einfach, diesem Gefühl Ausdruck zu verleihen. Um deine Dankbarkeit zu zeigen, ist es wichtig die Absicht haben, anderen Leuten komplett offen und ehrlich zu vermitteln, dass sie gut sind wie sie sind. Sei dabei nicht verlegen und nimm dir Zeit, die nahen Personen um dich wissen zu lassen, wie viel sie dir eigentlich bedeuten. \n\nEin Gefühl der Dankbarkeit in dein Leben zu bringen bedeutet, dass du die Personen schätzt und gerne Zeit mit ihnen verbringst und sie in deinem Leben hast. Dies auch einfach offen wissen lassen zu bekommen kann viel für beide Seiten bedeuten. Dabei kommt es auf dich an, wie es für dich am leichtesten ist, deine Gefühle offen zu übermitteln, sei es per Schreiben oder auch Telefonieren oder ein persönliches Treffen.",
            "fullImage": "../assets/manul3.jpg",
            "done": false
            
        },
    
        "socialExercise2_2": {
            "key": "3",
            "id": "social2_2",
            "title": "social Exercise 2 Day 2 Title",
            "description": "social Exercise 2 Day 2 Description",
            "fullImage": "../assets/manul3.jpg",
            "done": false
            
        }
    },

    "socialDay3": {

        "socialExercise3_1": {
            "key": "4",
            "id": "social3_1",
            "title": "Eine kleine Liste",
            "description": "Heute ist es an der Zeit, eine Liste für dich mit Aktivitäten zu erstellen, die du zukünftig gerne mit den Personen um dich machen möchtest oder sogar schon länger geplant hast. Es kann viel helfen, zumindest einfach eine Übersicht davon zu haben, an die du dich jederzeit gemeinsam richten kannst.",
            "fullImage": "../assets/manul3.jpg",
            "done": false
            
        },
    
        "socialExercise3_2": {
            "key": "5",
            "id": "social3_2",
            "title": "social Exercise 2 Day 3 Title",
            "description": "social Exercise 2 Day 3 Description",
            "fullImage": "../assets/manul3.jpg",
            "done": false
            
        }
    },

    "socialDay4": {

        "socialExercise4_1": {
            "key": "6",
            "id": "social4_1",
            "title": "Eine kleine Pause",
            "description": "Es ist wichtig regelmäßig Zeit mit deinen Menschen aus deinem nahen Umfeld zu verbringen oder euch auch mitzuteilen, wie es euch derzeit geht. Jedoch ist es auch komplett in Ordnung, wenn du dich mal leicht erschöpft fühlen solltest und realisierst, etwas Zeit für dich zu brauchen. Dabei muss es nicht um den heutigen Tag gehen, sondern generell. \n\nGenauso, wenn du wegen unterschiedlichen Gründen derzeit nicht viel Zeit besitzt, um dich zu treffen. Deswegen ist es wichtig deinen Personen einfach dies offen wissen zu lassen und ihr miteinander kommuniziert. \n\nAnschließend könnt ihr wieder ein neues Treffen planen, sobald du dich wieder aufladen konntest. ",
            "fullImage": "../assets/manul3.jpg",
            "done": false
            
        },
    
        "socialExercise4_2": {
            "key": "7",
            "id": "social4_2",
            "title": "social Exercise 2 Day 4 Title",
            "description": "social Exercise 2 Day 4 Description",
            "fullImage": "../assets/manul3.jpg",
            "done": false
            
        }
    },

    "socialDay5": {

        "socialExercise5_1": {
            "key": "8",
            "id": "social5_1",
            "title": "Zeit für die Personen um dich",
            "description": "Zeit mit Freunden und Familie hilft dir dabei, Stress abzubauen, fördert die Gesundheit, stärkt dein Selbstwertgefühl und wirkt sich in allen Belangen positiv auf dein allgemeines Wohlbefinden aus. \n\nDeswegen kannst du dir heute die Möglichkeit nehmen, um Zeit mit den Personen in deiner nahen Umgebung zu verbringen und etwas zu machen, was euch gut tut. Selbst, wenn es kleinere Dinge sind, die ihr zusammen machen könnt. Das Wichtigste ist, sich Zeit füreinander zu nehmen und das Bedürfnis auch zum Ausdruck bringen zu können.",
            "fullImage": "../assets/manul3.jpg",
            "done": false
            
        },
    
        "socialExercise5_2": {
            "key": "9",
            "id": "social5_2",
            "title": "social Exercise 2 Day 5 Title",
            "description": "social Exercise 2 Day 5 Description",
            "fullImage": "../assets/manul3.jpg",
            "done": false
            
        }
    },

    "socialDay6": {

        "socialExercise6_1": {
            "key": "10",
            "id": "social6_1",
            "title": "social Exercise 1 Day 6 Title",
            "description": "social Exercise 1 Day 6 Description",
            "fullImage": "../assets/manul3.jpg",
            "done": false
            
        },
    
        "socialExercise6_2": {
            "key": "11",
            "id": "social6_2",
            "title": "social Exercise 2 Day 6 Title",
            "description": "social Exercise 2 Day 6 Description",
            "fullImage": "../assets/manul3.jpg",
            "done": false
            
        }
    },

    "socialDay7": {

        "socialExercise7_1": {
            "key": "12",
            "id": "social7_1",
            "title": "social Exercise 1 Day 7 Title",
            "description": "social Exercise 1 Day 7 Description",
            "fullImage": "../assets/manul3.jpg",
            "done": false
            
        },
    
        "socialExercise7_2": {
            "key": "13",
            "id": "social7_2",
            "title": "social Exercise 2 Day 7 Title",
            "description": "social Exercise 2 Day 7 Description",
            "fullImage": "../assets/manul3.jpg",
            "done": false
            
        }
    }

    

}