{
    "MH_1_badge": {
        "title": "Neues Abzeichen gewonnen!",
        "body":  "Du hast das Be kind to yourself Abzeichen erworben."
     },

     "MH_2_badge": {
        "title": "Neues Abzeichen gewonnen!",
        "body":  "Vergiss nicht, dir für deine tolle Arbeit Pausen zu nehmen! Du hast das 'It is okay to recharge' Abzeichen erworben."
     },
    "MH_3_badge": {
        "title": "Neues Abzeichen gewonnen!",
        "body":  "Als Dankeschön für deine Teilnahme hast du das 'Take care of yourself Abzeichen' erworben."
     },

    "MH_4_badge": {
       "title": "Neues Abzeichen gewonnen!",
       "body":  "Es ist in Ordnung, wie du das fühlst. Du hast das 'Healing takes time Abzeichen' erworben."
    },

    "PH_1_badge": {
        "title": "Neues Abzeichen gewonnen!",
        "body":  "Mach weiter so! Du hast das 'Work hard Abzeichen' erworben."
     },

     "PH_2_badge": {
        "title": "Neues Abzeichen gewonnen!",
        "body":  "Du hast dich sehr viel um deine physische Gesundheit gekümmert und dir das 'Beast mode Abzeichen' verdient."
     }

}